{
	"database_host": "172.104.181.56",
	"database_name": "lemonop-aspirant",
	"database_port": 29784,
	"database_max_connections": 1000,
	"maxIdleTimeMS": 100,
	"database_username": "aspirant-beta",
	"database_password": "makepath102017"
}